{
    "databaseChangeLog": [
        {
            "changeSet": {
                "id": "efde136b85864f50acfdba266d5ae9eb",
                "author": "framework",
                "changes": [
                    {
                        "createSequence": {
                            "cacheSize": 20,
                            "cycle": false,
                            "incrementBy": 1,
                            "ordered": false,
                            "schemaName": "public",
                            "sequenceName": "hibernate_sequence",
                            "startValue": 10000
                        }
                    }
                ]
            }
        }
    ]
}