{
    "databaseChangeLog": [
        {
            "changeSet": {
                "id": "4239c1b8a20942cbb3883c8fa19f6d55",
                "author": "framework",
                "changes": [
                    {
                        "createTable": {
                            "columns": [
                                {
                                    "column": {
                                        "constraints": {
                                            "nullable": false
                                        },
                                        "name": "id",
                                        "type": "number(19, 0)"
                                    }
                                },
                                {
                                    "column": {
                                        "name": "name",
                                        "type": "varchar2(255 char)"
                                    }
                                }
                            ],
                            "tableName": "dynamicenum"
                        }
                    },
                    {
                        "createIndex": {
                            "columns": [
                                {
                                    "column": {
                                        "name": "id"
                                    }
                                }
                            ],
                            "indexName": "dynamicenum_id_idx",
                            "tableName": "dynamicenum",
                            "unique": true
                        }
                    },
                    {
                        "addPrimaryKey": {
                            "columnNames": "id",
                            "constraintName": "dynamicenum_id_pk",
                            "tableName": "dynamicenum"
                        }
                    }
                ]
            }
        }
    ]
}